1 1 1
89 75 111
53 1 112
72 36 113
17 43 112
10 57 113
14 86 116
13 100 119
84 32 116
2 100 119
71 91 116
70 99 119
19 65 113
5 79 116
17 71 113
67 52 113
11 76 116
87 41 116
4 71 113
47 81 116
32 32 6
846 72 171
322 571 144
773 557 171
302 767 171
741 206 171
520 163 144
87 828 171
626 499 137
523 986 179
919 696 179
104 99 88
870 606 171
638 480 142
772 706 153
172 916 179
792 332 171
345 89 144
450 254 144
688 989 179
127 297 128
140 631 144
429 598 142
536 175 144
559 925 179
583 570 119
707 644 171
300 300 17
326 207 131
255 24 128
714 732 140
697 518 145
610 619 132
236 719 171
6 907 179
483 34 144
169 892 179
112 592 144
943 654 179
791 547 171
355 316 144
625 378 142
239 927 179
107 532 144
523 867 171
51 689 145
120 549 144
833 892 179
811 9 171
200 528 144
209 707 171
412 679 145
564 869 171
20 597 144
791 738 153
12 463 144
925 556 179
275 877 179
357 959 179
593 299 144
692 599 145
185 175 94
771 837 153
963 8 179
39 270 128
363 319 144
602 397 142
801 923 179
698 971 179
112 244 128
50 34 110
588 1000 179
390 807 171
962 222 179
421 691 145
534 815 171
990 853 179
803 582 171
267 364 144
28 871 179
62 3 113
812 220 171
377 534 142
526 78 144
594 330 142
967 747 179
113 656 145
851 505 171
610 474 142
304 43 128
383 485 134
909 423 179
665 942 179
823 736 153
461 450 129
292 425 144
374 621 142
411 629 142
870 988 179
720 300 171
512 793 171
870 607 171
3130 9092 262
2105 9772 262
5085 2918 238
3215 7514 262
1018 2892 209
8936 6179 257
4801 8713 262
2033 4561 238
7739 7368 239
5234 8908 262
13087 60426 340
30604 64694 340
59244 49658 340
72649 97451 351
78409 68490 351
932952 362204 525
438069 142233 449
746708 739260 393
